{
  "user": {
    "list":"api/v1/user",
    "active":"api/v1/user/active/:id",
    "profile":"api/v1/user/:id",
    "update":"api/v1/user/:id",
    "delete":"api/v1/user/:id",
  },
  "role": {
    "list":"api/v1/role",
    "create":"api/v1/role/create",
    "show":"api/v1/role/:id",
    "update":"api/v1/role/:id",
    "delete":"api/v1/role/:id",
  },
  "permission": {
    "list":"api/v1/permission",
    "create":"api/v1/permission/create",
    "show":"api/v1/permission/:id",
    "update":"api/v1/permission/:id",
    "delete":"api/v1/permission/:id",
  },
}
